{
    "costPerKilowattHourInPence": 17.2,
    "energyReadings": [
        {
            "time": "2022-02-02T00:20:00Z",
            "kWh": 42385.30884260084
        },
        {
            "time": "2022-02-02T00:30:00Z",
            "kWh": 42385.3790255961
        },
        {
            "time": "2022-02-02T00:40:00Z",
            "kWh": 42385.45132261084
        },
        {
            "time": "2022-02-02T01:10:00Z",
            "kWh": 42385.54391598887
        },
        {
            "time": "2022-02-02T01:20:00Z",
            "kWh": 42385.62484043243
        },
        {
            "time": "2022-02-02T01:50:00Z",
            "kWh": 42385.72030386536
        },
        {
            "time": "2022-02-02T02:00:00Z",
            "kWh": 42385.80278902794
        },
        {
            "time": "2022-02-02T02:30:00Z",
            "kWh": 42385.887028871315
        },
        {
            "time": "2022-02-02T02:50:00Z",
            "kWh": 42385.96526743589
        },
        {
            "time": "2022-02-02T03:00:00Z",
            "kWh": 42386.04289538003
        },
        {
            "time": "2022-02-02T03:40:00Z",
            "kWh": 42386.12347102071
        },
        {
            "time": "2022-02-02T04:30:00Z",
            "kWh": 42386.20079939489
        },
        {
            "time": "2022-02-02T05:10:00Z",
            "kWh": 42386.27475370366
        },
        {
            "time": "2022-02-02T05:50:00Z",
            "kWh": 42386.36834817006
        },
        {
            "time": "2022-02-02T06:00:00Z",
            "kWh": 42386.44509386091
        },
        {
            "time": "2022-02-02T06:30:00Z",
            "kWh": 42386.51156592115
        },
        {
            "time": "2022-02-02T07:00:00Z",
            "kWh": 42386.60665755785
        },
        {
            "time": "2022-02-02T07:30:00Z",
            "kWh": 42386.70549080842
        },
        {
            "time": "2022-02-02T07:50:00Z",
            "kWh": 42386.78492493307
        },
        {
            "time": "2022-02-02T09:20:00Z",
            "kWh": 42386.86896067916
        },
        {
            "time": "2022-02-02T09:30:00Z",
            "kWh": 42386.952309144166
        },
        {
            "time": "2022-02-02T09:40:00Z",
            "kWh": 42387.04793996505
        },
        {
            "time": "2022-02-02T10:40:00Z",
            "kWh": 42387.12927883664
        },
        {
            "time": "2022-02-02T11:10:00Z",
            "kWh": 42387.22523913119
        },
        {
            "time": "2022-02-02T11:20:00Z",
            "kWh": 42387.31854662234
        },
        {
            "time": "2022-02-02T11:40:00Z",
            "kWh": 42387.385644608155
        },
        {
            "time": "2022-02-02T11:50:00Z",
            "kWh": 42387.461402657376
        },
        {
            "time": "2022-02-02T12:00:00Z",
            "kWh": 42387.54749939183
        },
        {
            "time": "2022-02-02T12:30:00Z",
            "kWh": 42387.64357425553
        },
        {
            "time": "2022-02-02T12:50:00Z",
            "kWh": 42387.74233544536
        },
        {
            "time": "2022-02-02T13:00:00Z",
            "kWh": 42387.813825279285
        },
        {
            "time": "2022-02-02T14:10:00Z",
            "kWh": 42387.91217525058
        },
        {
            "time": "2022-02-02T15:10:00Z",
            "kWh": 42387.9906565714
        },
        {
            "time": "2022-02-02T15:30:00Z",
            "kWh": 42388.06847352812
        },
        {
            "time": "2022-02-02T15:40:00Z",
            "kWh": 42388.1418137801
        },
        {
            "time": "2022-02-02T15:50:00Z",
            "kWh": 42388.21247691783
        },
        {
            "time": "2022-02-02T16:10:00Z",
            "kWh": 42388.27891090939
        },
        {
            "time": "2022-02-02T16:40:00Z",
            "kWh": 42388.37421594261
        },
        {
            "time": "2022-02-02T16:50:00Z",
            "kWh": 42388.45077985458
        },
        {
            "time": "2022-02-02T17:30:00Z",
            "kWh": 42388.52227841624
        },
        {
            "time": "2022-02-02T18:00:00Z",
            "kWh": 42389.207983770524
        },
        {
            "time": "2022-02-02T18:40:00Z",
            "kWh": 42389.28759988101
        },
        {
            "time": "2022-02-02T19:00:00Z",
            "kWh": 42389.35527195566
        },
        {
            "time": "2022-02-02T19:10:00Z",
            "kWh": 42389.4532138508
        },
        {
            "time": "2022-02-02T19:20:00Z",
            "kWh": 42389.52480173475
        },
        {
            "time": "2022-02-02T21:00:00Z",
            "kWh": 42389.611620399075
        },
        {
            "time": "2022-02-02T21:10:00Z",
            "kWh": 42389.69184527944
        },
        {
            "time": "2022-02-02T21:20:00Z",
            "kWh": 42389.765367866145
        },
        {
            "time": "2022-02-02T21:50:00Z",
            "kWh": 42389.84766650157
        },
        {
            "time": "2022-02-02T22:00:00Z",
            "kWh": 42389.93539971262
        },
        {
            "time": "2022-02-02T22:10:00Z",
            "kWh": 42390.02855940786
        },
        {
            "time": "2022-02-02T22:30:00Z",
            "kWh": 42390.09626633717
        },
        {
            "time": "2022-02-02T22:50:00Z",
            "kWh": 42390.192649729644
        },
        {
            "time": "2022-02-02T23:10:00Z",
            "kWh": 42390.25925139184
        },
        {
            "time": "2022-02-02T23:40:00Z",
            "kWh": 42390.356095397794
        },
        {
            "time": "2022-02-02T23:50:00Z",
            "kWh": 42390.442673438876
        }
    ],
    "hourlyTemperatureReadings": {
        "living_room": [
            {
                "hour": 0,
                "temperature": 16
            },
            {
                "hour": 1,
                "temperature": 15.59
            },
            {
                "hour": 2,
                "temperature": 17.46
            },
            {
                "hour": 3,
                "temperature": 17.08
            },
            {
                "hour": 4,
                "temperature": 15.09
            },
            {
                "hour": 5,
                "temperature": 14.98
            },
            {
                "hour": 6,
                "temperature": 18.43
            },
            {
                "hour": 7,
                "temperature": 15.55
            },
            {
                "hour": 8,
                "temperature": 17
            },
            {
                "hour": 9,
                "temperature": 15.85
            },
            {
                "hour": 10,
                "temperature": 17.92
            },
            {
                "hour": 11,
                "temperature": 18.91
            },
            {
                "hour": 12,
                "temperature": 18.48
            },
            {
                "hour": 13,
                "temperature": 16.19
            },
            {
                "hour": 14,
                "temperature": 18
            },
            {
                "hour": 15,
                "temperature": 16.63
            },
            {
                "hour": 16,
                "temperature": 15.78
            },
            {
                "hour": 17,
                "temperature": 16.89
            },
            {
                "hour": 18,
                "temperature": 15.43
            },
            {
                "hour": 19,
                "temperature": 15.46
            },
            {
                "hour": 20,
                "temperature": 16.85
            },
            {
                "hour": 21,
                "temperature": 16.08
            },
            {
                "hour": 22,
                "temperature": 14.99
            },
            {
                "hour": 23,
                "temperature": 16
            }
        ],
        "kitchen": [
            {
                "hour": 0,
                "temperature": 15
            },
            {
                "hour": 1,
                "temperature": 14.93
            },
            {
                "hour": 2,
                "temperature": 14.58
            },
            {
                "hour": 3,
                "temperature": 18.11
            },
            {
                "hour": 4,
                "temperature": 18.86
            },
            {
                "hour": 5,
                "temperature": 17.3
            },
            {
                "hour": 6,
                "temperature": 18.63
            },
            {
                "hour": 7,
                "temperature": 17.68
            },
            {
                "hour": 8,
                "temperature": 19
            },
            {
                "hour": 9,
                "temperature": 19.03
            },
            {
                "hour": 10,
                "temperature": 18.8
            },
            {
                "hour": 11,
                "temperature": 16.77
            },
            {
                "hour": 12,
                "temperature": 17.64
            },
            {
                "hour": 13,
                "temperature": 19.02
            },
            {
                "hour": 14,
                "temperature": 17.64
            },
            {
                "hour": 15,
                "temperature": 18.1
            },
            {
                "hour": 16,
                "temperature": 18
            },
            {
                "hour": 17,
                "temperature": 21
            },
            {
                "hour": 18,
                "temperature": 23.38
            },
            {
                "hour": 19,
                "temperature": 23
            },
            {
                "hour": 20,
                "temperature": 22.87
            },
            {
                "hour": 21,
                "temperature": 20
            },
            {
                "hour": 22,
                "temperature": 19.55
            },
            {
                "hour": 23,
                "temperature": 20
            }
        ],
        "bathroom": [
            {
                "hour": 0,
                "temperature": 15
            },
            {
                "hour": 1,
                "temperature": 14.06
            },
            {
                "hour": 2,
                "temperature": 15.26
            },
            {
                "hour": 3,
                "temperature": 17.3
            },
            {
                "hour": 4,
                "temperature": 18.13
            },
            {
                "hour": 5,
                "temperature": 21.14
            },
            {
                "hour": 6,
                "temperature": 22.41
            },
            {
                "hour": 7,
                "temperature": 22
            },
            {
                "hour": 8,
                "temperature": 22.63
            },
            {
                "hour": 9,
                "temperature": 22.08
            },
            {
                "hour": 10,
                "temperature": 21.55
            },
            {
                "hour": 11,
                "temperature": 21.01
            },
            {
                "hour": 12,
                "temperature": 19.68
            },
            {
                "hour": 13,
                "temperature": 21.48
            },
            {
                "hour": 14,
                "temperature": 18.92
            },
            {
                "hour": 15,
                "temperature": 19.95
            },
            {
                "hour": 16,
                "temperature": 17.16
            },
            {
                "hour": 17,
                "temperature": 16.28
            },
            {
                "hour": 18,
                "temperature": 18
            },
            {
                "hour": 19,
                "temperature": 18.83
            },
            {
                "hour": 20,
                "temperature": 16.3
            },
            {
                "hour": 21,
                "temperature": 17.52
            },
            {
                "hour": 22,
                "temperature": 18.2
            },
            {
                "hour": 23,
                "temperature": 16
            }
        ],
        "bedroom": [
            {
                "hour": 0,
                "temperature": 17
            },
            {
                "hour": 1,
                "temperature": 17.86
            },
            {
                "hour": 2,
                "temperature": 17.47
            },
            {
                "hour": 3,
                "temperature": 20.04
            },
            {
                "hour": 4,
                "temperature": 17.54
            },
            {
                "hour": 5,
                "temperature": 19.35
            },
            {
                "hour": 6,
                "temperature": 21.03
            },
            {
                "hour": 7,
                "temperature": 21
            },
            {
                "hour": 8,
                "temperature": 17.68
            },
            {
                "hour": 9,
                "temperature": 18
            },
            {
                "hour": 10,
                "temperature": 19.41
            },
            {
                "hour": 11,
                "temperature": 19.55
            },
            {
                "hour": 12,
                "temperature": 16.19
            },
            {
                "hour": 13,
                "temperature": 16.07
            },
            {
                "hour": 14,
                "temperature": 19.22
            },
            {
                "hour": 15,
                "temperature": 18.8
            },
            {
                "hour": 16,
                "temperature": 17.51
            },
            {
                "hour": 17,
                "temperature": 17.25
            },
            {
                "hour": 18,
                "temperature": 16.79
            },
            {
                "hour": 19,
                "temperature": 18.18
            },
            {
                "hour": 20,
                "temperature": 16.56
            },
            {
                "hour": 21,
                "temperature": 17.04
            },
            {
                "hour": 22,
                "temperature": 16.55
            },
            {
                "hour": 23,
                "temperature": 17
            }
        ]
    }
}
